75	10.2	1
84.5	10.4	1
68.9	12.3	1
102.5	17.8	0
86.2	12.7	1
70	9.6	1
103.7	15.5	0
73.6	10.7	1
85.7	10.9	1
110.2	16.9	0
77.1	11.4	1
71.8	8.1	1
103.3	15.3	0
78	8.4	1
81.7	9.5	1
94.1	21.9	0
87.5	16.6	0
98.4	14.3	0
87	5	1
100.7	14	0
99.3	15.8	0
101.1	10.4	1
108.1	17.5	0
62.4	15.7	1
76.4	8.7	1
76.9	7.4	1
93.2	12.8	0
94.6	15	0
92.4	19.9	0
59.6	6.3	1
105.9	15.8	0
88.5	16.1	0
77.7	10.5	1
62.6	8.4	1
110.8	12.3	0
80.1	10.6	1
89.4	8.8	1
71.5	6.5	1
67.3	8.1	1
97	19.6	0
75.2	15.4	0
84.7	9.2	1
89.7	6.9	1
69.6	11.8	1
65.4	8.7	1
75.3	8	1
74.7	11.6	1
88	16.6	0
105.9	17	0
96.4	15	0
97.7	11.7	1
110.6	11.1	0
79.4	8.1	1
72.6	9.6	1
86.3	12.5	1
62.9	4.5	1
88.5	16.2	0
59.8	10.8	1
95.1	11.4	0
95.2	13.4	0
96.5	9.3	1
94.2	17.3	0
102.5	15.8	0
96	16.7	0
89	13.6	0
84.2	16	0
99.3	12.7	0
89.3	19.3	0
97.4	7.4	1
93.2	8.6	0
81	8.4	1
99.4	16.4	0
96.6	9.7	0
67.5	9.2	1
88.5	8.9	1
81.7	12.8	0
104.1	13.6	0
88.9	14.3	0
96.3	7.7	1
108.7	16.9	0
100.9	11.3	1
91.3	15.2	0
81.4	8	1
90.5	11	1
71.6	10.1	1
93.5	17.3	0
87.4	9.4	1
104.8	17.5	0
67.3	15.2	0
79.6	16.2	0
99.1	17.1	0
103.8	15.2	0
89.1	10.2	1
100.5	13	0
102.9	15.9	0
69.6	9.8	1
96	10	1
95.3	9.9	0
86.3	16.7	0
106.6	11.6	0
104.2	17.7	0
84.5	11.8	0
85.6	10.4	1
101.3	15.2	0
75.3	10.1	1
96.7	12.7	0
89.5	13.9	0
96.7	15.8	0
107.7	9.1	0
90.2	14.2	0
74.7	9.7	1
104.3	10.1	0
112.6	17.4	0
101.1	15	0
73.6	14.6	1
74.4	8.8	1
90.2	8.9	1
91.6	12.9	0
89.4	9.3	1
78.1	10.8	1
82	14.5	0
91.5	8.1	0
82.7	11.9	0
78.9	7.3	1
91.6	15.7	0
103.2	14.2	0
82.3	5.6	1
67.9	8.4	1
94.8	8.9	1
83.7	19	0
87.5	12.6	0
74.2	15.6	0
88.3	10.3	1
72.7	10.3	1
107.4	13.9	0
111.8	12.5	0
116.6	16.3	0
86.4	20.5	0
86.4	13.4	0
87.7	13.9	0
89.3	15.4	0
80.9	4.8	1
86.4	12.1	1
83.4	9.1	1
64.7	9	1
83	9.9	1
71.1	10.8	1
95.3	13.2	0
63.6	10.3	1
88.1	10.9	0
67.5	12.7	1
104.7	16.4	0
80.9	12.6	1
110.7	13	0
68.3	13.7	1
89.2	9.7	1
67.5	10.9	1
78.3	11.2	1
78.5	10.3	1
108.9	15.1	0
97.5	17.2	0
102.5	17.3	0
90.8	13.6	1
119.7	17.1	0
62.6	8	1
106.9	8.5	0
72.6	11.8	1
71.9	7.4	1
96.7	13.9	0
83.3	12.2	1
81.3	12.7	1
100.5	11.3	1
97.9	11.6	1
108.9	14.4	0
93.2	12.9	0
95.6	8.6	1
99.1	9.9	1
109.6	16.4	0
112.5	20.7	0
83.3	14.4	0
106.6	10.3	0
85.1	8.5	1
82.1	8.6	1
86.6	14.5	0
92.6	8.6	1
76.2	8.4	1
92.6	12.9	1
89.3	12.5	0
73.6	11.1	1
69.7	8.7	1
70.7	11.1	1
84.8	6.8	1
